Tools Comparison (Detailed): Codex CLI + Codex GPT-5.3
…
Warning: Expected 2 pieces. Additional pieces discarded in 35 rows [6, 7, 8, 9, 10, 11,
12, 13, 14, 15, 26, 27, 28, 29, 30, 36, 37, 38, 39, 40, ...].

categorical_summary <- df %>%
  dplyr::select(where(is.factor)) %>%
  pivot_longer(everything(), names_to = "variable", values_to = "level") %>%
  count(variable, level, sort = TRUE) %>%
  group_by(variable) %>%
  mutate(prop = n / sum(n)) %>%
  ungroup()

numeric_summary

# A tibble: 42 × 13
   variable   mean     sd    p25 median    p75    id comprehensive    to
   <chr>     <dbl>  <dbl>  <dbl>  <dbl>  <dbl> <dbl>         <dbl> <dbl>
 1 id       25000. 14434. 12501. 25000. 37500.   NA         NA        NA
 2 provider    NA     NA     NA     NA     NA   251.        NA        NA
 3 provider    NA     NA     NA     NA     NA   144.        NA        NA
 4 provider    NA     NA     NA     NA     NA   125         NA        NA
 5 provider    NA     NA     NA     NA     NA   251         NA        NA
 6 provider    NA     NA     NA     NA     NA   375         NA        NA
 7 received    NA     NA     NA     NA     NA    NA          0.323    NA
 8 received    NA     NA     NA     NA     NA    NA          0.468    NA
 9 received    NA     NA     NA     NA     NA    NA          0        NA
10 received    NA     NA     NA     NA     NA    NA          0        NA
# ℹ 32 more rows
# ℹ 4 more variables: gestation <dbl>, disease <dbl>, previa <dbl>,
#   hypertension <dbl>
…
