Tools Comparison (Chat): Browser Agent + Claude
…
cat("\n---- Negative Binomial IRRs (primary) ----\n")

---- Negative Binomial IRRs (primary) ----

print(irr)

# A tibble: 70 × 5
   term                                            IRR IRR_low IRR_high  p.value
   <chr>                                         <dbl>   <dbl>    <dbl>    <dbl>
 1 Age (per 1 year)                              1.02    1.01     1.02  9.27e-84
 2 (Intercept)                                   0.517   0.404    0.653 7.05e- 8
 3 Received comprehensive postnatal care (Yes v… 1.04    1.02     1.06  1.22e- 4
 4 edu^4                                         0.961   0.941    0.982 2.63e- 4
 5 edu.C                                         0.962   0.935    0.990 8.54e- 3
 6 race_ethnicityother                           1.17    0.989    1.38  6.68e- 2
 7 stateND                                       1.26    0.951    1.68  1.08e- 1
 8 stateDC                                       1.24    0.936    1.66  1.34e- 1
 9 dependents                                    0.991   0.980    1.00  1.35e- 1
10 stateUT                                       1.19    0.947    1.51  1.43e- 1
# ℹ 60 more rows
…
